…
library(hms)
data$time <- as.hms(data$time)
data

## # A tibble: 440 x 19
##     year lizard order frequency   rep date  time   time.class   lat  long
##    <int> <chr>  <int>     <dbl> <int> <chr> <time> <chr>      <dbl> <dbl>
##  1  2018 1         21      151.     1 5-May 10:10  AM          35.1 -120.
##  2  2018 2         26      152.     1 5-May 10:30  AM          35.1 -120.
##  3  2018 11        22      151.     1 5-May 10:20  AM          35.1 -120.
##  4  2018 12        15      151.     1 5-May 09:32  AM          35.1 -120.
##  5  2018 19        13      151.     1 5-May 09:08  AM          35.1 -120.
##  6  2018 20        11      151      1 5-May 09:02  AM          35.1 -120.
##  7  2018 1         21      151.     2 6-May 09:07  AM          35.1 -120.
##  8  2018 2         26      152.     2 6-May 09:21  AM          35.1 -120.
##  9  2018 4         14      151.     2 6-May 15:21  PM          35.1 -120.
## 10  2018 7         23      152.     2 6-May 17:03  PM          35.1 -120.
## # ... with 430 more rows, and 9 more variables: ground <chr>,
## #   mesohabitat <chr>, microhabitat1 <chr>, `microhabitat 2` <chr>,
## #   `microhabitat 3` <chr>, behavior <chr>, observer <chr>, notes <chr>,
## #   pulseinterval <dbl>
…
#lizard.totals <- lizard.data %>% 
  #group_by(lizard, gender) %>% 
  #summarize(totals = sum(n)) %>% dplyr::select(-gender)

#lizard.freq <- left_join(lizard.freq, lizard.totals, by = "lizard") %>% mutate(proportionate.association = total.relocations/totals)

#timing####
timing <- data %>% group_by(date, time.class, behavior) %>% count()
#timing

lizard.sampling <- data %>% 
  group_by(lizard, date) %>% count() %>% summarize(count = sum(n))
lizard.sampling

## # A tibble: 410 x 3
## # Groups:   lizard [?]
##    lizard date   count
##    <chr>  <chr>  <int>
##  1 1      10-May     1
##  2 1      12-May     2
##  3 1      13-May     1
##  4 1      14-May     1
##  5 1      15-May     1
##  6 1      16-May     1
##  7 1      17-May     1
##  8 1      5-May      1
##  9 1      6-May      1
## 10 1      8-May      1
## # ... with 400 more rows
…
length(unique(lizard.sampling$lizard))

## [1] 31

lizard.days <- lizard.sampling %>% group_by(lizard) %>% count()
lizard.days

## # A tibble: 31 x 2
## # Groups:   lizard [31]
##    lizard     n
##    <chr>  <int>
##  1 1         10
##  2 100       14
##  3 11        15
##  4 12        15
##  5 12B       13
##  6 13        14
##  7 130       13
##  8 1337      13
##  9 176       14
## 10 19        15
## # ... with 21 more rows
…
